999
dxfrw 0.6.3
  0
SECTION
  2
HEADER
  9
$ACADVER
  1
AC1021
  9
$DWGCODEPAGE
  3
ANSI_1252
  9
$INSBASE
 10
0
 20
0
 30
0
  9
$EXTMIN
 10
-544.2736849588
 20
-309.5213581588739
 30
0
  9
$EXTMAX
 10
13.53927076427365
 20
248.2827208526737
 30
0
  9
$LIMMIN
 10
0
 20
0
  9
$LIMMAX
 10
420
 20
297
  9
$ORTHOMODE
 70
    0
  9
$REGENMODE
 70
    1
  9
$FILLMODE
 70
    1
  9
$QTEXTMODE
 70
    0
  9
$MIRRTEXT
 70
    1
  9
$LTSCALE
 40
1
  9
$ATTMODE
 70
    1
  9
$TEXTSIZE
 40
3.5
  9
$TRACEWID
 40
1
  9
$TEXTSTYLE
  7
Standard
  9
$CLAYER
  8
guides
  9
$CELTYPE
  6
ByLayer
  9
$CECOLOR
 62
  256
  9
$CELTSCALE
 40
1
  9
$DISPSILH
 70
    0
  9
$DIMSCALE
 40
1
  9
$DIMASZ
 40
3.302
  9
$DIMEXO
 40
1
  9
$DIMDLI
 40
3.75
  9
$DIMRND
 40
0
  9
$DIMDLE
 40
0
  9
$DIMEXE
 40
1
  9
$DIMTP
 40
0
  9
$DIMTM
 40
0
  9
$DIMTXT
 40
3.5
  9
$DIMCEN
 40
2.5
  9
$DIMTSZ
 40
0
  9
$DIMTOL
 70
    0
  9
$DIMLIM
 70
    0
  9
$DIMTIH
 70
    1
  9
$DIMTOH
 70
    1
  9
$DIMSE1
 70
    0
  9
$DIMSE2
 70
    0
  9
$DIMTAD
 70
    1
  9
$DIMZIN
 70
    1
  9
$DIMBLK
  1

  9
$DIMASO
 70
    1
  9
$DIMSHO
 70
    1
  9
$DIMPOST
  1

  9
$DIMAPOST
  1

  9
$DIMALT
 70
    0
  9
$DIMALTD
 70
    3
  9
$DIMALTF
 40
0.0393700787
  9
$DIMLFAC
 40
1
  9
$DIMTOFL
 70
    1
  9
$DIMTVP
 40
0
  9
$DIMTIX
 70
    0
  9
$DIMSOXD
 70
    0
  9
$DIMSAH
 70
    0
  9
$DIMBLK1
  1

  9
$DIMBLK2
  1

  9
$DIMSTYLE
  2
ISO-25
  9
$DIMCLRD
 70
    0
  9
$DIMCLRE
 70
    0
  9
$DIMCLRT
 70
    0
  9
$DIMTFAC
 40
1
  9
$DIMGAP
 40
1.524
  9
$DIMJUST
 70
    0
  9
$DIMSD1
 70
    0
  9
$DIMSD2
 70
    0
  9
$DIMTOLJ
 70
    0
  9
$DIMTZIN
 70
    1
  9
$DIMALTZ
 70
    0
  9
$DIMALTTZ
 70
    0
  9
$DIMUPT
 70
    0
  9
$DIMDEC
 70
    2
  9
$DIMTDEC
 70
    2
  9
$DIMALTU
 70
    2
  9
$DIMALTTD
 70
    3
  9
$DIMTXSTY
  7
Standard
  9
$DIMAUNIT
 70
    0
  9
$DIMADEC
 70
    0
  9
$DIMALTRND
 40
0
  9
$DIMAZIN
 70
    0
  9
$DIMDSEP
 70
   44
  9
$DIMATFIT
 70
    3
  9
$DIMFRAC
 70
    0
  9
$DIMLDRBLK
  1

  9
$DIMLUNIT
 70
    2
  9
$DIMLWD
 70
   -2
  9
$DIMLWE
 70
   -2
  9
$DIMTMOVE
 70
    0
  9
$DIMFXL
 40
1
  9
$DIMFXLON
 70
    0
  9
$DIMJOGANG
 40
0.7854
  9
$DIMTFILL
 70
    0
  9
$DIMTFILLCLR
 70
    0
  9
$DIMARCSYM
 70
    0
  9
$DIMLTYPE
  6

  9
$DIMLTEX1
  6

  9
$DIMLTEX2
  6

  9
$LUNITS
 70
    2
  9
$LUPREC
 70
    2
  9
$SKETCHINC
 40
1
  9
$FILLETRAD
 40
10
  9
$AUNITS
 70
    0
  9
$AUPREC
 70
    2
  9
$MENU
  1
.
  9
$ELEVATION
 40
0
  9
$PELEVATION
 40
0
  9
$THICKNESS
 40
0
  9
$LIMCHECK
 70
    0
  9
$CHAMFERA
 40
0
  9
$CHAMFERB
 40
0
  9
$CHAMFERC
 40
0
  9
$CHAMFERD
 40
0
  9
$SKPOLY
 70
    0
  9
$USRTIMER
 70
    1
  9
$ANGBASE
 50
0
  9
$ANGDIR
 70
    0
  9
$PDMODE
 70
    0
  9
$PDSIZE
 40
-1
  9
$PLINEWID
 40
0
  9
$SPLFRAME
 70
    0
  9
$SPLINETYPE
 70
    6
  9
$SPLINESEGS
 70
    8
  9
$HANDSEED
  5
20000
  9
$SURFTAB1
 70
    6
  9
$SURFTAB2
 70
    6
  9
$SURFTYPE
 70
    6
  9
$SURFU
 70
    6
  9
$SURFV
 70
    6
  9
$UCSBASE
  2

  9
$UCSNAME
  2

  9
$UCSORG
 10
0
 20
0
 30
0
  9
$UCSXDIR
 10
1
 20
0
 30
0
  9
$UCSYDIR
 10
0
 20
1
 30
0
  9
$UCSORTHOREF
  2

  9
$UCSORTHOVIEW
 70
    0
  9
$UCSORGTOP
 10
0
 20
0
 30
0
  9
$UCSORGBOTTOM
 10
0
 20
0
 30
0
  9
$UCSORGLEFT
 10
0
 20
0
 30
0
  9
$UCSORGRIGHT
 10
0
 20
0
 30
0
  9
$UCSORGFRONT
 10
0
 20
0
 30
0
  9
$UCSORGBACK
 10
0
 20
0
 30
0
  9
$PUCSBASE
  2

  9
$PUCSNAME
  2

  9
$PUCSORG
 10
0
 20
0
 30
0
  9
$PUCSXDIR
 10
1
 20
0
 30
0
  9
$PUCSYDIR
 10
0
 20
1
 30
0
  9
$PUCSORTHOREF
  2

  9
$PUCSORTHOVIEW
 70
    0
  9
$PUCSORGTOP
 10
0
 20
0
 30
0
  9
$PUCSORGBOTTOM
 10
0
 20
0
 30
0
  9
$PUCSORGLEFT
 10
0
 20
0
 30
0
  9
$PUCSORGRIGHT
 10
0
 20
0
 30
0
  9
$PUCSORGFRONT
 10
0
 20
0
 30
0
  9
$PUCSORGBACK
 10
0
 20
0
 30
0
  9
$USERI1
 70
    0
  9
$USERI2
 70
    0
  9
$USERI3
 70
    0
  9
$USERI4
 70
    0
  9
$USERI5
 70
    0
  9
$USERR1
 40
0
  9
$USERR2
 40
0
  9
$USERR3
 40
0
  9
$USERR4
 40
0
  9
$USERR5
 40
0
  9
$WORLDVIEW
 70
    1
  9
$SHADEDGE
 70
    3
  9
$SHADEDIF
 70
   70
  9
$TILEMODE
 70
    1
  9
$MAXACTVP
 70
   64
  9
$PINSBASE
 10
0
 20
0
 30
0
  9
$PLIMCHECK
 70
    0
  9
$PEXTMIN
 10
1e+20
 20
1e+20
 30
1e+20
  9
$PEXTMAX
 10
-1e+20
 20
-1e+20
 30
-1e+20
  9
$GRIDMODE
 70
    0
  9
$SNAPSTYLE
 70
    0
  9
$PLIMMIN
 10
0
 20
0
  9
$PLIMMAX
 10
420
 20
297
  9
$UNITMODE
 70
    0
  9
$VISRETAIN
 70
    1
  9
$PLINEGEN
 70
    0
  9
$PSLTSCALE
 70
    1
  9
$TREEDEPTH
 70
 3020
  9
$CMLSTYLE
  2
Standard
  9
$CMLJUST
 70
    0
  9
$CMLSCALE
 40
20
  9
$PROXYGRAPHICS
 70
    1
  9
$MEASUREMENT
 70
    1
  9
$CELWEIGHT
370
   -1
  9
$ENDCAPS
280
    0
  9
$JOINSTYLE
280
    0
  9
$LWDISPLAY
290
    1
  9
$INSUNITS
 70
    4
  9
$HYPERLINKBASE
  1

  9
$STYLESHEET
  1

  9
$XEDIT
290
    1
  9
$CEPSNTYPE
380
    0
  9
$PSTYLEMODE
290
    1
  9
$EXTNAMES
290
    1
  9
$PSVPSCALE
 40
0
  9
$OLESTARTUP
290
    0
  9
$SORTENTS
280
  127
  9
$INDEXCTL
280
    0
  9
$HIDETEXT
280
    1
  9
$XCLIPFRAME
290
    0
  9
$HALOGAP
280
    0
  9
$OBSCOLOR
 70
  257
  9
$OBSLTYPE
280
    0
  9
$INTERSECTIONDISPLAY
280
    0
  9
$INTERSECTIONCOLOR
 70
  257
  9
$DIMASSOC
280
    1
  9
$PROJECTNAME
  1

  9
$CAMERADISPLAY
290
    0
  9
$LENSLENGTH
 40
50
  9
$CAMERAHEIGHT
 40
0
  9
$STEPSPERSEC
 40
2
  9
$STEPSIZE
 40
50
  9
$3DDWFPREC
 40
2
  9
$PSOLWIDTH
 40
5
  9
$PSOLHEIGHT
 40
80
  9
$LOFTANG1
 40
1.570796326794897
  9
$LOFTANG2
 40
1.570796326794897
  9
$LOFTMAG1
 40
0
  9
$LOFTMAG2
 40
0
  9
$LOFTPARAM
 70
    7
  9
$LOFTNORMALS
280
    1
  9
$LATITUDE
 40
1
  9
$LONGITUDE
 40
1
  9
$NORTHDIRECTION
 40
0
  9
$TIMEZONE
 70
-8000
  9
$LIGHTGLYPHDISPLAY
280
    1
  9
$TILEMODELIGHTSYNCH
280
    1
  9
$SOLIDHIST
280
    1
  9
$SHOWHIST
280
    1
  9
$DWFFRAME
280
    2
  9
$DGNFRAME
280
    0
  9
$REALWORLDSCALE
290
    1
  9
$INTERFERECOLOR
 62
    1
  9
$CSHADOW
280
    0
  9
$SHADOWPLANELOCATION
 40
0
  0
ENDSEC
  0
SECTION
  2
CLASSES
  0
ENDSEC
  0
SECTION
  2
TABLES
  0
TABLE
  2
VPORT
  5
8
330
0
100
AcDbSymbolTable
 70
    1
  0
VPORT
  5
31
330
2
100
AcDbSymbolTableRecord
100
AcDbViewportTableRecord
  2
*ACTIVE
 70
    0
 10
0
 20
0
 11
1
 21
1
 12
302.6347482554465
 22
297.6572030538767
 13
0
 23
0
 14
10
 24
10
 15
10
 25
10
 16
0
 26
0
 36
1
 17
0
 27
0
 37
0
 40
961.6617329432939
 41
1.453416149068323
 42
50
 43
0
 44
0
 50
0
 51
0
 71
    0
 72
  100
 73
    1
 74
    3
 75
    0
 76
    0
 77
    0
 78
    0
281
    0
 65
    1
110
0
120
0
130
0
111
1
121
0
131
0
112
0
122
1
132
0
 79
    0
146
0
348
10020
 60
    7
 61
    5
292
1
282
    1
141
0
142
0
 63
  250
421
3358443
  0
ENDTAB
  0
TABLE
  2
LTYPE
  5
5
330
0
100
AcDbSymbolTable
 70
    4
  0
LTYPE
  5
14
330
5
100
AcDbSymbolTableRecord
100
AcDbLinetypeTableRecord
  2
ByBlock
 70
    0
  3

 72
   65
 73
    0
 40
0
  0
LTYPE
  5
15
330
5
100
AcDbSymbolTableRecord
100
AcDbLinetypeTableRecord
  2
ByLayer
 70
    0
  3

 72
   65
 73
    0
 40
0
  0
LTYPE
  5
16
330
5
100
AcDbSymbolTableRecord
100
AcDbLinetypeTableRecord
  2
Continuous
 70
    0
  3
Solid line
 72
   65
 73
    0
 40
0
  0
LTYPE
  5
32
330
5
100
AcDbSymbolTableRecord
100
AcDbLinetypeTableRecord
  2
DOT
 70
    0
  3
Dot . . . . . . . . . . . . . . . . . . . . . .
 72
   65
 73
    2
 40
6.35
 49
0
 74
    0
 49
-6.35
 74
    0
  0
LTYPE
  5
33
330
5
100
AcDbSymbolTableRecord
100
AcDbLinetypeTableRecord
  2
DOTTINY
 70
    0
  3
Dot (.15x) .....................................
 72
   65
 73
    2
 40
0.9525
 49
0
 74
    0
 49
-0.9525
 74
    0
  0
LTYPE
  5
34
330
5
100
AcDbSymbolTableRecord
100
AcDbLinetypeTableRecord
  2
DOT2
 70
    0
  3
Dot (.5x) .....................................
 72
   65
 73
    2
 40
3.175
 49
0
 74
    0
 49
-3.175
 74
    0
  0
LTYPE
  5
35
330
5
100
AcDbSymbolTableRecord
100
AcDbLinetypeTableRecord
  2
DOTX2
 70
    0
  3
Dot (2x) .  .  .  .  .  .  .  .  .  .  .  .  .
 72
   65
 73
    2
 40
12.7
 49
0
 74
    0
 49
-12.7
 74
    0
  0
LTYPE
  5
36
330
5
100
AcDbSymbolTableRecord
100
AcDbLinetypeTableRecord
  2
DASHED
 70
    0
  3
Dashed _ _ _ _ _ _ _ _ _ _ _ _ _ _ _ _ _
 72
   65
 73
    2
 40
19.05
 49
12.7
 74
    0
 49
-6.35
 74
    0
  0
LTYPE
  5
37
330
5
100
AcDbSymbolTableRecord
100
AcDbLinetypeTableRecord
  2
DASHEDTINY
 70
    0
  3
Dashed (.15x) _ _ _ _ _ _ _ _ _ _ _ _ _ _ _ _ _
 72
   65
 73
    2
 40
2.8575
 49
1.905
 74
    0
 49
-0.9525
 74
    0
  0
LTYPE
  5
38
330
5
100
AcDbSymbolTableRecord
100
AcDbLinetypeTableRecord
  2
DASHED2
 70
    0
  3
Dashed (.5x) _ _ _ _ _ _ _ _ _ _ _ _ _ _ _ _ _
 72
   65
 73
    2
 40
9.524999999999999
 49
6.35
 74
    0
 49
-3.175
 74
    0
  0
LTYPE
  5
39
330
5
100
AcDbSymbolTableRecord
100
AcDbLinetypeTableRecord
  2
DASHEDX2
 70
    0
  3
Dashed (2x) ____  ____  ____  ____  ____  ___
 72
   65
 73
    2
 40
38.09999999999999
 49
25.4
 74
    0
 49
-12.7
 74
    0
  0
LTYPE
  5
3A
330
5
100
AcDbSymbolTableRecord
100
AcDbLinetypeTableRecord
  2
DASHDOT
 70
    0
  3
Dash dot __ . __ . __ . __ . __ . __ . __ . __
 72
   65
 73
    4
 40
25.4
 49
12.7
 74
    0
 49
-6.35
 74
    0
 49
0
 74
    0
 49
-6.35
 74
    0
  0
LTYPE
  5
3B
330
5
100
AcDbSymbolTableRecord
100
AcDbLinetypeTableRecord
  2
DASHDOTTINY
 70
    0
  3
Dash dot (.15x) _._._._._._._._._._._._._._._.
 72
   65
 73
    4
 40
3.81
 49
1.905
 74
    0
 49
-0.9525
 74
    0
 49
0
 74
    0
 49
-0.9525
 74
    0
  0
LTYPE
  5
3C
330
5
100
AcDbSymbolTableRecord
100
AcDbLinetypeTableRecord
  2
DASHDOT2
 70
    0
  3
Dash dot (.5x) _._._._._._._._._._._._._._._.
 72
   65
 73
    4
 40
12.7
 49
6.35
 74
    0
 49
-3.175
 74
    0
 49
0
 74
    0
 49
-3.175
 74
    0
  0
LTYPE
  5
3D
330
5
100
AcDbSymbolTableRecord
100
AcDbLinetypeTableRecord
  2
DASHDOTX2
 70
    0
  3
Dash dot (2x) ____  .  ____  .  ____  .  ___
 72
   65
 73
    4
 40
50.8
 49
25.4
 74
    0
 49
-12.7
 74
    0
 49
0
 74
    0
 49
-12.7
 74
    0
  0
LTYPE
  5
3E
330
5
100
AcDbSymbolTableRecord
100
AcDbLinetypeTableRecord
  2
DIVIDE
 70
    0
  3
Divide ____ . . ____ . . ____ . . ____ . . ____
 72
   65
 73
    6
 40
31.75
 49
12.7
 74
    0
 49
-6.35
 74
    0
 49
0
 74
    0
 49
-6.35
 74
    0
 49
0
 74
    0
 49
-6.35
 74
    0
  0
LTYPE
  5
3F
330
5
100
AcDbSymbolTableRecord
100
AcDbLinetypeTableRecord
  2
DIVIDETINY
 70
    0
  3
Divide (.15x) __..__..__..__..__..__..__..__.._
 72
   65
 73
    6
 40
4.7625
 49
1.905
 74
    0
 49
-0.9525
 74
    0
 49
0
 74
    0
 49
-0.9525
 74
    0
 49
0
 74
    0
 49
-0.9525
 74
    0
  0
LTYPE
  5
40
330
5
100
AcDbSymbolTableRecord
100
AcDbLinetypeTableRecord
  2
DIVIDE2
 70
    0
  3
Divide (.5x) __..__..__..__..__..__..__..__.._
 72
   65
 73
    6
 40
15.875
 49
6.35
 74
    0
 49
-3.175
 74
    0
 49
0
 74
    0
 49
-3.175
 74
    0
 49
0
 74
    0
 49
-3.175
 74
    0
  0
LTYPE
  5
41
330
5
100
AcDbSymbolTableRecord
100
AcDbLinetypeTableRecord
  2
DIVIDEX2
 70
    0
  3
Divide (2x) ________  .  .  ________  .  .  _
 72
   65
 73
    6
 40
63.5
 49
25.4
 74
    0
 49
-12.7
 74
    0
 49
0
 74
    0
 49
-12.7
 74
    0
 49
0
 74
    0
 49
-12.7
 74
    0
  0
LTYPE
  5
42
330
5
100
AcDbSymbolTableRecord
100
AcDbLinetypeTableRecord
  2
BORDER
 70
    0
  3
Border __ __ . __ __ . __ __ . __ __ . __ __ .
 72
   65
 73
    6
 40
44.45
 49
12.7
 74
    0
 49
-6.35
 74
    0
 49
12.7
 74
    0
 49
-6.35
 74
    0
 49
0
 74
    0
 49
-6.35
 74
    0
  0
LTYPE
  5
43
330
5
100
AcDbSymbolTableRecord
100
AcDbLinetypeTableRecord
  2
BORDERTINY
 70
    0
  3
Border (.15x) __.__.__.__.__.__.__.__.__.__.__.
 72
   65
 73
    6
 40
6.6675
 49
1.905
 74
    0
 49
-0.9525
 74
    0
 49
1.905
 74
    0
 49
-0.9525
 74
    0
 49
0
 74
    0
 49
-0.9525
 74
    0
  0
LTYPE
  5
44
330
5
100
AcDbSymbolTableRecord
100
AcDbLinetypeTableRecord
  2
BORDER2
 70
    0
  3
Border (.5x) __.__.__.__.__.__.__.__.__.__.__.
 72
   65
 73
    6
 40
22.225
 49
6.35
 74
    0
 49
-3.175
 74
    0
 49
6.35
 74
    0
 49
-3.175
 74
    0
 49
0
 74
    0
 49
-3.175
 74
    0
  0
LTYPE
  5
45
330
5
100
AcDbSymbolTableRecord
100
AcDbLinetypeTableRecord
  2
BORDERX2
 70
    0
  3
Border (2x) ____  ____  .  ____  ____  .  ___
 72
   65
 73
    6
 40
88.89999999999999
 49
25.4
 74
    0
 49
-12.7
 74
    0
 49
25.4
 74
    0
 49
-12.7
 74
    0
 49
0
 74
    0
 49
-12.7
 74
    0
  0
LTYPE
  5
46
330
5
100
AcDbSymbolTableRecord
100
AcDbLinetypeTableRecord
  2
CENTER
 70
    0
  3
Center ____ _ ____ _ ____ _ ____ _ ____ _ ____
 72
   65
 73
    4
 40
50.8
 49
31.75
 74
    0
 49
-6.35
 74
    0
 49
6.35
 74
    0
 49
-6.35
 74
    0
  0
LTYPE
  5
47
330
5
100
AcDbSymbolTableRecord
100
AcDbLinetypeTableRecord
  2
CENTERTINY
 70
    0
  3
Center (.15x) ___ _ ___ _ ___ _ ___ _ ___ _ ___
 72
   65
 73
    4
 40
7.619999999999999
 49
4.7625
 74
    0
 49
-0.9525
 74
    0
 49
0.9525
 74
    0
 49
-0.9525
 74
    0
  0
LTYPE
  5
48
330
5
100
AcDbSymbolTableRecord
100
AcDbLinetypeTableRecord
  2
CENTER2
 70
    0
  3
Center (.5x) ___ _ ___ _ ___ _ ___ _ ___ _ ___
 72
   65
 73
    4
 40
28.575
 49
19.05
 74
    0
 49
-3.175
 74
    0
 49
3.175
 74
    0
 49
-3.175
 74
    0
  0
LTYPE
  5
49
330
5
100
AcDbSymbolTableRecord
100
AcDbLinetypeTableRecord
  2
CENTERX2
 70
    0
  3
Center (2x) ________  __  ________  __  _____
 72
   65
 73
    4
 40
101.6
 49
63.5
 74
    0
 49
-12.7
 74
    0
 49
12.7
 74
    0
 49
-12.7
 74
    0
  0
ENDTAB
  0
TABLE
  2
LAYER
  5
2
330
0
100
AcDbSymbolTable
 70
    1
  0
LAYER
  5
10
330
2
100
AcDbSymbolTableRecord
100
AcDbLayerTableRecord
  2
0
 70
    1
 62
    7
  6
CONTINUOUS
370
   -3
390
F
  0
LAYER
  5
4A
330
2
100
AcDbSymbolTableRecord
100
AcDbLayerTableRecord
  2
1st Cut
 70
    1
 62
    4
  6
CONTINUOUS
370
    0
390
F
  0
LAYER
  5
4B
330
2
100
AcDbSymbolTableRecord
100
AcDbLayerTableRecord
  2
2nd Cut
 70
    0
 62
    6
  6
CONTINUOUS
370
    0
390
F
  0
LAYER
  5
4C
330
2
100
AcDbSymbolTableRecord
100
AcDbLayerTableRecord
  2
guides
 70
    0
 62
    2
  6
CONTINUOUS
370
    0
390
F
1001
LibreCad
1070
    1
  0
ENDTAB
  0
TABLE
  2
STYLE
  5
3
330
0
100
AcDbSymbolTable
 70
    3
  0
STYLE
  5
4D
330
2
100
AcDbSymbolTableRecord
100
AcDbTextStyleTableRecord
  2
Standard
 70
    0
 40
0
 41
1
 50
0
 71
    0
 42
1
  3
txt
  4

  0
ENDTAB
  0
TABLE
  2
VIEW
  5
6
330
0
100
AcDbSymbolTable
 70
    0
  0
ENDTAB
  0
TABLE
  2
UCS
  5
7
330
0
100
AcDbSymbolTable
 70
    0
  0
ENDTAB
  0
TABLE
  2
APPID
  5
9
330
0
100
AcDbSymbolTable
 70
    1
  0
APPID
  5
12
330
9
100
AcDbSymbolTableRecord
100
AcDbRegAppTableRecord
  2
ACAD
 70
    0
  0
APPID
  5
4E
330
9
100
AcDbSymbolTableRecord
100
AcDbRegAppTableRecord
  2
LibreCad
 70
    0
  0
ENDTAB
  0
TABLE
  2
DIMSTYLE
  5
A
330
0
100
AcDbSymbolTable
 70
    1
100
AcDbDimStyleTable
 71
    1
  0
DIMSTYLE
105
4F
330
A
100
AcDbSymbolTableRecord
100
AcDbDimStyleTableRecord
  2
Standard
 70
    0
 40
1
 41
3.302
 42
1
 43
0.38
 44
1
 45
0
 46
0
 47
0
 48
0
 49
1
140
3.5
141
0.09
142
0
143
25.4
144
1
145
0
146
1
147
1.524
148
0
 71
    0
 72
    0
 73
    1
 74
    1
 75
    0
 76
    0
 77
    0
 78
    1
 79
    0
170
    0
171
    2
172
    0
173
    0
174
    0
175
    0
176
    0
177
    0
178
    0
179
    0
271
    2
272
    4
273
    2
274
    2
275
    0
276
    0
277
    2
278
   44
279
    0
280
    0
281
    0
282
    0
283
    1
284
    0
285
    0
286
    0
288
    0
289
    3
340
Standard
341

371
   -2
372
   -2
  0
ENDTAB
  0
TABLE
  2
BLOCK_RECORD
  5
1
330
0
100
AcDbSymbolTable
 70
    2
  0
BLOCK_RECORD
  5
1F
330
1
100
AcDbSymbolTableRecord
100
AcDbBlockTableRecord
  2
*Model_Space
 70
    0
280
    1
281
    0
  0
BLOCK_RECORD
  5
1E
330
1
100
AcDbSymbolTableRecord
100
AcDbBlockTableRecord
  2
*Paper_Space
 70
    0
280
    1
281
    0
  0
ENDTAB
  0
ENDSEC
  0
SECTION
  2
BLOCKS
  0
BLOCK
  5
20
330
1F
100
AcDbEntity
  8
0
100
AcDbBlockBegin
  2
*Model_Space
 70
    0
 10
0
 20
0
 30
0
  3
*Model_Space
  1

  0
ENDBLK
  5
21
330
1F
100
AcDbEntity
  8
0
100
AcDbBlockEnd
  0
BLOCK
  5
1C
330
1B
100
AcDbEntity
  8
0
100
AcDbBlockBegin
  2
*Paper_Space
 70
    0
 10
0
 20
0
 30
0
  3
*Paper_Space
  1

  0
ENDBLK
  5
1D
330
1F
100
AcDbEntity
  8
0
100
AcDbBlockEnd
  0
ENDSEC
  0
SECTION
  2
ENTITIES
  0
CIRCLE
  5
50
100
AcDbEntity
  8
1st Cut
  6
CONTINUOUS
 62
  256
370
   25
100
AcDbCircle
 10
-486.9099055789
 20
7.599620368
 40
12.5
  0
CIRCLE
  5
51
100
AcDbEntity
  8
1st Cut
  6
CONTINUOUS
 62
  256
370
   25
100
AcDbCircle
 10
-467.4347796592
 20
62.0469147125
 40
10.24999999999994
  0
CIRCLE
  5
52
100
AcDbEntity
  8
1st Cut
  6
CONTINUOUS
 62
  256
370
   25
100
AcDbCircle
 10
-420.069141061
 20
62.0469147125
 40
5.949999999999989
  0
CIRCLE
  5
53
100
AcDbEntity
  8
1st Cut
  6
CONTINUOUS
 62
  256
370
   25
100
AcDbCircle
 10
-413.6746754568
 20
6.266464077
 40
5.950000000000045
  0
CIRCLE
  5
54
100
AcDbEntity
  8
1st Cut
  6
CONTINUOUS
 62
  256
370
   25
100
AcDbCircle
 10
-431.6730608451
 20
6.0253761014
 40
5.949999999999932
  0
CIRCLE
  5
55
100
AcDbEntity
  8
1st Cut
  6
CONTINUOUS
 62
  256
370
   25
100
AcDbCircle
 10
-449.6714462335
 20
5.7842881259
 40
5.949999999999932
  0
CIRCLE
  5
56
100
AcDbEntity
  8
1st Cut
  6
CONTINUOUS
 62
  256
370
   25
100
AcDbCircle
 10
-218.5161288257
 20
103.1986783091
 40
1.752600000000257
  0
CIRCLE
  5
57
100
AcDbEntity
  8
1st Cut
  6
CONTINUOUS
 62
  256
370
   25
100
AcDbCircle
 10
-171.3704912968
 20
103.1986783091
 40
1.7526000000002
  0
CIRCLE
  5
58
100
AcDbEntity
  8
1st Cut
  6
CONTINUOUS
 62
  256
370
   25
100
AcDbCircle
 10
-171.3704912968
 20
150.3443158379
 40
1.752600000000143
  0
CIRCLE
  5
59
100
AcDbEntity
  8
1st Cut
  6
CONTINUOUS
 62
  256
370
   25
100
AcDbCircle
 10
-218.5161288257
 20
150.3443158379
 40
1.752600000001166
  0
CIRCLE
  5
5A
100
AcDbEntity
  8
1st Cut
  6
CONTINUOUS
 62
  256
370
   25
100
AcDbCircle
 10
-194.9433100612
 20
126.7714970735
 40
28.70200000000003
  0
CIRCLE
  5
5B
100
AcDbEntity
  8
1st Cut
  6
CONTINUOUS
 62
  256
370
   25
100
AcDbCircle
 10
-314.5161288257
 20
103.1986783091
 40
1.752600000000314
  0
CIRCLE
  5
5C
100
AcDbEntity
  8
1st Cut
  6
CONTINUOUS
 62
  256
370
   25
100
AcDbCircle
 10
-267.3704912968
 20
103.1986783091
 40
1.752600000000143
  0
CIRCLE
  5
5D
100
AcDbEntity
  8
1st Cut
  6
CONTINUOUS
 62
  256
370
   25
100
AcDbCircle
 10
-267.3704912968
 20
150.3443158379
 40
1.752600000000143
  0
CIRCLE
  5
5E
100
AcDbEntity
  8
1st Cut
  6
CONTINUOUS
 62
  256
370
   25
100
AcDbCircle
 10
-314.5161288257
 20
150.3443158379
 40
1.752600000001166
  0
CIRCLE
  5
5F
100
AcDbEntity
  8
1st Cut
  6
CONTINUOUS
 62
  256
370
   25
100
AcDbCircle
 10
-290.9433100612
 20
126.7714970735
 40
28.702
  0
CIRCLE
  5
60
100
AcDbEntity
  8
1st Cut
  6
CONTINUOUS
 62
  256
370
   25
100
AcDbCircle
 10
-410.4624047159
 20
99.9874257828
 40
1.752600000000257
  0
CIRCLE
  5
61
100
AcDbEntity
  8
1st Cut
  6
CONTINUOUS
 62
  256
370
   25
100
AcDbCircle
 10
-363.3167671871
 20
99.9874257828
 40
1.752600000000143
  0
CIRCLE
  5
62
100
AcDbEntity
  8
1st Cut
  6
CONTINUOUS
 62
  256
370
   25
100
AcDbCircle
 10
-363.3167671871
 20
147.1330633116
 40
1.752600000000143
  0
CIRCLE
  5
63
100
AcDbEntity
  8
1st Cut
  6
CONTINUOUS
 62
  256
370
   25
100
AcDbCircle
 10
-410.4624047159
 20
147.1330633116
 40
1.752600000001166
  0
CIRCLE
  5
64
100
AcDbEntity
  8
1st Cut
  6
CONTINUOUS
 62
  256
370
   25
100
AcDbCircle
 10
-386.8895859515
 20
123.5602445472
 40
28.702
  0
CIRCLE
  5
65
100
AcDbEntity
  8
1st Cut
  6
CONTINUOUS
 62
  256
370
   25
100
AcDbCircle
 10
-371.6121819535
 20
7.9704289107
 40
1.752600000000029
  0
CIRCLE
  5
66
100
AcDbEntity
  8
1st Cut
  6
CONTINUOUS
 62
  256
370
   25
100
AcDbCircle
 10
-308.750389106
 20
7.9704289107
 40
1.752599999999973
  0
CIRCLE
  5
67
100
AcDbEntity
  8
1st Cut
  6
CONTINUOUS
 62
  256
370
   25
100
AcDbCircle
 10
-308.750389106
 20
70.83222175820001
 40
1.752599999999973
  0
CIRCLE
  5
68
100
AcDbEntity
  8
1st Cut
  6
CONTINUOUS
 62
  256
370
   25
100
AcDbCircle
 10
-371.6121819535
 20
70.83222175820001
 40
1.752600000000029
  0
CIRCLE
  5
69
100
AcDbEntity
  8
1st Cut
  6
CONTINUOUS
 62
  256
370
   25
100
AcDbCircle
 10
-340.1812855298
 20
39.4013253345
 40
39.68750000000006
  0
CIRCLE
  5
6A
100
AcDbEntity
  8
1st Cut
  6
CONTINUOUS
 62
  256
370
   25
100
AcDbCircle
 10
-244.1812855298
 20
39.4013253345
 40
39.6875
  0
CIRCLE
  5
6B
100
AcDbEntity
  8
1st Cut
  6
CONTINUOUS
 62
  256
370
   25
100
AcDbCircle
 10
-275.6121819535
 20
70.83222175820001
 40
1.752600000000029
  0
CIRCLE
  5
6C
100
AcDbEntity
  8
1st Cut
  6
CONTINUOUS
 62
  256
370
   25
100
AcDbCircle
 10
-212.750389106
 20
70.83222175820001
 40
1.752600000000001
  0
CIRCLE
  5
6D
100
AcDbEntity
  8
1st Cut
  6
CONTINUOUS
 62
  256
370
   25
100
AcDbCircle
 10
-212.750389106
 20
7.9704289107
 40
1.752600000000001
  0
CIRCLE
  5
6E
100
AcDbEntity
  8
1st Cut
  6
CONTINUOUS
 62
  256
370
   25
100
AcDbCircle
 10
-275.6121819535
 20
7.9704289107
 40
1.752599999999973
  0
LINE
  5
6F
100
AcDbEntity
  8
2nd Cut
  6
CONTINUOUS
 62
  256
370
   25
100
AcDbLine
 10
-529.7614219411
 20
-30.7291255719
 11
13.5303940528
 21
-21.784017138
  0
SPLINE
  5
70
100
AcDbEntity
  8
2nd Cut
  6
CONTINUOUS
 62
  256
370
   25
100
AcDbSpline
210
0
220
0
230
0
 70
    8
 71
    3
 72
   18
 73
   14
 74
    0
 42
1e-07
 43
1e-07
 40
0
 40
0
 40
0
 40
0
 40
0.03125
 40
0.03125
 40
0.0625
 40
0.0625
 40
0.125
 40
0.125
 40
0.25
 40
0.25
 40
0.5
 40
0.5
 40
1
 40
1
 40
1
 40
1
 10
13.53039405275559
 20
-21.78401713803702
 30
0
 10
13.54174884622985
 20
-18.82199256765742
 30
0
 10
13.54549823587345
 20
-18.4699025337023
 30
0
 10
13.50461612163932
 20
-15.16793865893567
 30
0
 10
13.46189087459071
 20
-13.51148056221372
 30
0
 10
13.26872247559991
 20
-8.573225527499039
 30
0
 10
13.05141404766134
 20
-5.274222466211435
 30
0
 10
12.14147437972585
 20
4.561416524953729
 30
0
 10
11.17335261660754
 20
11.16494649619713
 30
0
 10
7.31587459011931
 20
30.45779632015233
 30
0
 10
3.37272867541907
 20
43.14674133751372
 30
0
 10
-11.7720581799804
 20
79.22280982721496
 30
0
 10
-26.1490424440462
 20
102.3943594280298
 30
0
 10
-46.08812402299453
 20
119.5874341574403
 30
0
  0
SPLINE
  5
71
100
AcDbEntity
  8
2nd Cut
  6
CONTINUOUS
 62
  256
370
   25
100
AcDbSpline
210
0
220
0
230
0
 70
    8
 71
    3
 72
    8
 73
    4
 74
    0
 42
1e-07
 43
1e-07
 40
0
 40
0
 40
0
 40
0
 40
1
 40
1
 40
1
 40
1
 10
-46.08812402299451
 20
119.5874341574403
 30
0
 10
-65.18838506578315
 20
138.9927862904116
 30
0
 10
-92.84969904691216
 20
154.0275532151615
 30
0
 10
-116.6484150475461
 20
166.3018193669045
 30
0
  0
SPLINE
  5
72
100
AcDbEntity
  8
2nd Cut
  6
CONTINUOUS
 62
  256
370
   25
100
AcDbSpline
210
0
220
0
230
0
 70
    8
 71
    3
 72
   20
 73
   16
 74
    0
 42
1e-07
 43
1e-07
 40
0
 40
0
 40
0
 40
0
 40
0.25
 40
0.25
 40
0.375
 40
0.375
 40
0.5
 40
0.5
 40
0.75
 40
0.75
 40
0.875
 40
0.875
 40
0.9375000000000001
 40
0.9375000000000001
 40
1
 40
1
 40
1
 40
1
 10
-116.6484150475461
 20
166.3018193669045
 30
0
 10
-139.4152908032074
 20
178.9590164772138
 30
0
 10
-167.4367442330652
 20
185.7601649999308
 30
0
 10
-208.009970212615
 20
191.2841396124492
 30
0
 10
-221.2727623591943
 20
192.1910756791552
 30
0
 10
-248.169398256661
 20
192.8122215159813
 30
0
 10
-261.6114568079711
 20
193.3221822147556
 30
0
 10
-302.1578428917601
 20
190.0263227561828
 30
0
 10
-327.8063101546318
 20
185.9225120673885
 30
0
 10
-369.1397604177544
 20
176.7842176657706
 30
0
 10
-378.9267722126146
 20
172.6962633873889
 30
0
 10
-401.0540358706264
 20
164.3377115315083
 30
0
 10
-406.2520293544082
 20
162.1653153337089
 30
0
 10
-418.669883138302
 20
156.7276120695977
 30
0
 10
-424.795142832401
 20
153.6435877035798
 30
0
 10
-430.810508224988
 20
150.241574942478
 30
0
  0
SPLINE
  5
73
100
AcDbEntity
  8
2nd Cut
  6
CONTINUOUS
 62
  256
370
   25
100
AcDbSpline
210
0
220
0
230
0
 70
    8
 71
    2
 72
    6
 73
    3
 74
    0
 42
1e-07
 43
1e-07
 40
0
 40
0
 40
0
 40
1
 40
1
 40
1
 10
-503.6113705267341
 20
89.48038828038341
 30
0
 10
-472.3958599081739
 20
127.6796922442242
 30
0
 10
-430.810508224988
 20
150.241574942478
 30
0
  0
SPLINE
  5
74
100
AcDbEntity
  8
2nd Cut
  6
CONTINUOUS
 62
  256
370
   25
100
AcDbSpline
210
0
220
0
230
0
 70
    8
 71
    3
 72
   12
 73
    8
 74
    0
 42
1e-07
 43
1e-07
 40
0
 40
0
 40
0
 40
0
 40
0.5
 40
0.5
 40
0.75
 40
0.75
 40
1
 40
1
 40
1
 40
1
 10
-503.6113712691359
 20
89.48038892975579
 30
0
 10
-517.5700163353681
 20
73.52203765322615
 30
0
 10
-527.0221188832719
 20
52.11770640977715
 30
0
 10
-535.0845347411939
 20
22.99342184704836
 30
0
 10
-537.5270847996018
 20
11.05605349863002
 30
0
 10
-540.9323143507595
 20
-8.576513179177066
 30
0
 10
-542.3719137216195
 20
-18.42461019923102
 30
0
 10
-544.2736849587945
 20
-30.61931865311428
 30
0
  0
LINE
  5
75
100
AcDbEntity
  8
2nd Cut
  6
CONTINUOUS
 62
  256
370
   25
100
AcDbLine
 10
-544.2736849588
 20
-30.6193186531
 11
-529.7614219410998
 21
-30.7291255719
  0
LINE
  5
76
100
AcDbEntity
  8
guides
  6
ByLayer
 62
  256
370
   -1
100
AcDbLine
 10
-544.2736849587923
 20
-30.61931865310006
 11
-514.2736849587923
 21
-30.61931865310006
  0
LINE
  5
77
100
AcDbEntity
  8
guides
  6
ByLayer
 62
  256
370
   -1
100
AcDbLine
 10
-544.2736849587918
 20
-30.61931865310006
 11
-544.2736849587918
 21
-0.6193186531000556
  0
LINE
  5
78
100
AcDbEntity
  8
guides
  6
ByLayer
 62
  256
370
   -1
100
AcDbLine
 10
13.53039405275581
 20
-21.78401713800073
 11
13.53039405275581
 21
8.215982861999272
  0
CIRCLE
  5
79
100
AcDbEntity
  8
guides
  6
ByLayer
 62
  256
370
   -1
100
AcDbCircle
 10
-265.371645453018
 20
-30.61931865310006
 40
278.9020395057738
  0
LINE
  5
7A
100
AcDbEntity
  8
guides
  6
ByLayer
 62
  256
370
   -1
100
AcDbLine
 10
-265.371645453018
 20
-30.61931865310006
 11
-265.371645453018
 21
-0.6193186531000556
  0
LINE
  5
7B
100
AcDbEntity
  8
guides
  6
ByLayer
 62
  256
370
   -1
100
AcDbLine
 10
-265.371645453018
 20
192.7597178207915
 11
-235.371645453018
 21
192.7597178207915
  0
ARC
  5
7C
100
AcDbEntity
  8
guides
  6
ByLayer
 62
  256
370
   -1
100
AcDbCircle
 10
-265.3716452068497
 20
-93.0427095898974
 40
285.8024274106889
100
AcDbArc
 50
12.61592577070941
 51
167.3840746811854
  0
LINE
  5
7D
100
AcDbEntity
  8
guides
  6
ByLayer
 62
  256
370
   -1
100
AcDbLine
 10
-265.3716454924532
 20
-20.61931865310006
 11
-265.3716454135828
 21
-40.61931865310005
  0
ENDSEC
  0
SECTION
  2
OBJECTS
  0
DICTIONARY
  5
C
330
0
100
AcDbDictionary
281
    1
  3
ACAD_GROUP
350
D
  0
DICTIONARY
  5
D
330
C
100
AcDbDictionary
281
    1
  0
PLOTSETTINGS
  5
7E
100
AcDbPlotSettings
  6
1x1
 40
0
 41
0
 42
0
 43
0
  0
ENDSEC
  0
EOF
